<?xml version="1.0" standalone="no"?>
<!DOCTYPE svg PUBLIC "-//W3C//DTD SVG 20010904//EN"
 "http://www.w3.org/TR/2001/REC-SVG-20010904/DTD/svg10.dtd">
<svg version="1.0" xmlns="http://www.w3.org/2000/svg"
 width="453.000000pt" height="453.000000pt" viewBox="0 0 453.000000 453.000000"
 preserveAspectRatio="xMidYMid meet">
<metadata>
Created by potrace 1.11, written by Peter Selinger 2001-2013
</metadata>
<g transform="translate(0.000000,453.000000) scale(0.100000,-0.100000)"
fill="#000000" stroke="none">
<path d="M2490 4522 c0 -17 1409 -3356 1422 -3369 22 -21 70 -31 106 -21 36
10 72 57 72 96 0 12 -310 759 -689 1660 l-690 1637 -110 3 c-61 1 -111 -1
-111 -6z"/>
<path d="M1826 4048 c-19 -17 -255 -566 -867 -2013 -462 -1094 -845 -2000
-850 -2012 l-9 -23 113 0 113 0 832 1969 c601 1421 832 1978 832 2005 0 82
-103 128 -164 74z"/>
<path d="M2335 2901 c-11 -5 -30 -19 -41 -32 -21 -23 -409 -992 -420 -1048 -8
-38 11 -78 48 -101 32 -20 47 -20 456 -18 l424 3 29 33 c20 22 29 43 29 65 0
18 -91 261 -203 546 -211 537 -214 542 -277 555 -14 3 -34 1 -45 -3z m154
-691 c61 -158 111 -289 111 -293 0 -4 -106 -7 -236 -7 -185 0 -235 3 -231 13
162 413 232 585 238 579 3 -4 56 -135 118 -292z"/>
<path d="M1629 1155 c-15 -8 -29 -20 -32 -27 -71 -166 -267 -669 -267 -686 0
-57 48 -102 110 -102 59 0 80 35 200 338 l112 282 606 -2 605 -3 196 -478 195
-477 112 0 112 0 -33 83 c-302 746 -428 1044 -451 1065 l-25 22 -707 0 c-594
-1 -711 -3 -733 -15z"/>
</g>
</svg>
