<?xml version="1.0" encoding="UTF-8" standalone="no"?>
<svg width="70px" height="70px" viewBox="0 0 70 70" version="1.1" xmlns="http://www.w3.org/2000/svg" xmlns:xlink="http://www.w3.org/1999/xlink">
    <!-- Generator: Sketch 3.7.2 (28276) - http://www.bohemiancoding.com/sketch -->
    <title>icon-loupe</title>
    <desc>Created with Sketch.</desc>
    <defs></defs>
    <g id="Page-1" stroke="none" stroke-width="1" fill="none" fill-rule="evenodd">
        <g id="icon-loupe" fill="#FFD3E1">
            <path d="M68.5984,65.4805 L51.2094,47.9885 C53.0584,45.7435 54.6064,43.2705 55.7184,40.5545 C57.1334,37.1395 57.9084,33.3835 57.9084,29.4795 C57.9084,25.6105 57.1334,21.9685 55.7754,18.5525 L55.7184,18.4015 C54.2654,14.9305 52.1714,11.7805 49.5474,9.1375 L49.4164,9.0055 C46.7944,6.3455 43.5684,4.1945 40.0394,2.7225 C36.6044,1.3085 32.8694,0.4965 28.9624,0.4965 C20.9814,0.4965 13.7354,3.7795 8.4894,9.0055 C5.8124,11.6665 3.6784,14.8545 2.1894,18.4015 C0.7924,21.8555 0.0004,25.5915 0.0004,29.4795 C0.0004,33.3275 0.7924,37.0445 2.1504,40.4225 L2.1894,40.5545 C3.6594,44.1215 5.8124,47.3285 8.4894,49.9685 C11.1694,52.6485 14.3404,54.7805 17.8884,56.2335 C21.3024,57.6685 25.0584,58.4215 28.9624,58.4215 C32.8694,58.4215 36.6234,57.6685 40.0394,56.2335 C42.7564,55.1205 45.2464,53.5915 47.4724,51.7425 L64.8824,69.2345 C65.9204,70.2545 67.5804,70.2545 68.5984,69.2345 C69.6554,68.1975 69.6554,66.5185 68.5984,65.4805 M45.6814,46.1955 L45.6814,46.1955 L45.6234,46.2345 C43.4734,48.4035 40.8684,50.1395 38.0014,51.3665 C35.2454,52.4795 32.1704,53.1405 28.9624,53.1405 C25.7364,53.1405 22.6794,52.4795 19.9074,51.3665 C17.0204,50.1395 14.4154,48.3655 12.2454,46.1955 L12.2264,46.1955 L12.2454,46.1955 C10.0564,43.9695 8.3024,41.4035 7.0944,38.4985 L7.0564,38.4035 C5.9244,35.6485 5.3214,32.6105 5.3214,29.4795 C5.3214,26.2525 5.9434,23.2155 7.0944,20.4205 C8.3024,17.5545 10.0374,14.9485 12.2454,12.7985 C16.5294,8.4785 22.4164,5.8355 28.9624,5.8355 C32.1704,5.8355 35.2454,6.4955 38.0014,7.6085 C40.9074,8.8355 43.4924,10.5725 45.6814,12.7985 L45.8124,12.9105 C47.9264,15.0245 49.6244,17.6095 50.8134,20.4205 L50.8694,20.5715 C51.9624,23.3275 52.6064,26.3085 52.6064,29.4795 C52.6064,32.6865 51.9624,35.7625 50.8134,38.4985 C49.6244,41.4405 47.8514,44.0455 45.6814,46.1955 M21.6614,12.2125 L21.6614,12.2125 C20.5294,12.6845 19.4524,13.2895 18.4904,13.9315 C17.5084,14.6475 16.5664,15.3845 15.7354,16.2125 L15.7354,16.2315 C14.8684,17.0825 14.0754,18.0245 13.4344,19.0065 L13.4344,19.0255 C12.7364,20.0435 12.1514,21.0825 11.6994,22.1755 C11.3584,23.0065 11.7354,23.9315 12.5664,24.2705 C13.3584,24.6095 14.3014,24.2325 14.6424,23.4215 C15.0014,22.5155 15.4734,21.6095 16.0384,20.7805 L16.0384,20.8165 C16.6054,19.9695 17.2634,19.2135 17.9634,18.4775 C18.6604,17.7795 19.4524,17.1185 20.3034,16.5915 C21.0954,16.0065 22.0014,15.5535 22.9054,15.1755 C23.6994,14.7985 24.0954,13.8745 23.7754,13.0635 C23.3964,12.2325 22.4924,11.8925 21.6614,12.2125 M46.1144,27.8755 L46.1144,27.8755 C45.2274,27.8755 44.5294,28.5725 44.5294,29.4795 C44.5294,31.5345 44.1144,33.5165 43.3224,35.4415 L43.3224,35.5535 C42.5474,37.3275 41.4344,38.9885 39.9454,40.4985 C38.4534,41.9695 36.7374,43.0635 34.9064,43.8555 C33.0204,44.6305 30.9814,45.0635 28.9624,45.0635 C28.0754,45.0635 27.3584,45.7435 27.3584,46.6305 C27.3584,47.4975 28.0754,48.2345 28.9624,48.2345 C31.3974,48.2345 33.8484,47.7435 36.1524,46.8005 C38.3414,45.8945 40.4164,44.5365 42.2094,42.7625 C43.9834,40.9885 45.3024,38.9135 46.2454,36.7245 L46.2454,36.6665 C47.2094,34.3655 47.6984,31.9305 47.6984,29.4795 C47.6984,28.5725 46.9824,27.8755 46.1144,27.8755" id="Fill-1"></path>
        </g>
    </g>
</svg>